<?xml version="1.0" encoding="UTF-8"?>
<svg width="20px" height="20px" viewBox="0 0 20 20" version="1.1" xmlns="http://www.w3.org/2000/svg" xmlns:xlink="http://www.w3.org/1999/xlink">
    <!-- Generator: Sketch 49.3 (51167) - http://www.bohemiancoding.com/sketch -->
    <title>noun_628652_cc</title>
    <desc>Created with Sketch.</desc>
    <defs></defs>
    <g id="Finale-V1.0" stroke="none" stroke-width="1" fill="none" fill-rule="evenodd">
        <g id="Educación" transform="translate(-131.000000, -1467.000000)" fill="#000000" fill-rule="nonzero">
            <g id="noun_628652_cc" transform="translate(131.000000, 1467.000000)">
                <path d="M1.49166667,11.4 C2.26438958,11.3988527 2.89051934,10.7727229 2.89166667,10 C2.89625874,6.07607958 6.07607958,2.89625874 10,2.89166667 C10.500544,2.89166667 10.9630657,2.62462964 11.2133377,2.19114584 C11.4636097,1.75766204 11.4636097,1.22358796 11.2133377,0.790104161 C10.9630657,0.356620357 10.500544,0.0895833259 10,0.0895833333 C4.52900795,0.0953247507 0.0953247507,4.52900795 0.0895833333,10 C0.0907327187,10.7735355 0.718130287,11.4000009 1.49166667,11.4 Z M10,0.714583333 C10.4280207,0.714583333 10.775,1.06156265 10.775,1.48958333 C10.775,1.91760401 10.4280207,2.26458333 10,2.26458333 C5.73008934,2.26917819 2.27011138,5.73008825 2.26666667,10 C2.26666667,10.2768808 2.11895251,10.5327293 1.87916667,10.6711697 C1.63938083,10.8096101 1.3439525,10.8096101 1.10416666,10.6711697 C0.864380827,10.5327293 0.716666663,10.2768808 0.716666667,10 C0.722404984,4.87499791 4.87499932,0.721471656 10,0.714583333 Z M10.0125,17.1083333 C9.23930261,17.1094848 8.61343556,17.7372182 8.61458643,18.5104156 C8.61573731,19.283613 9.2434703,19.9094805 10.0166677,19.9083302 C10.7898651,19.9071799 11.4157331,19.2794474 11.4145833,18.50625 C11.412287,17.7335284 10.785225,17.1083299 10.0125,17.1083333 Z M10.0125,19.2833333 C9.58448159,19.2844824 9.23657234,18.9384369 9.23542227,18.5104185 C9.2342722,18.0824001 9.58031681,17.73449 10.0083352,17.7333389 C10.4363536,17.7321878 10.7842645,18.0782316 10.7854167,18.50625 C10.7854548,18.9325365 10.4429151,19.2797177 10.0166667,19.2854167 L10.0125,19.2833333 Z M13.0416667,1.92708333 C12.7259569,2.47566756 12.8175848,3.16783999 13.2651593,3.61538268 C13.7127337,4.06292536 14.4049126,4.15450423 14.9534744,3.83875555 C15.5020363,3.52300686 15.7705167,2.87847863 15.6083333,2.26666667 C15.5137461,1.90735588 15.2787971,1.60109652 14.95625,1.41666667 L14.9333333,1.40416667 C14.2658412,1.03213587 13.4233076,1.26503889 13.0416667,1.92708333 Z M13.5833333,2.23958333 C13.6857155,2.06122786 13.8551228,1.93117842 14.0538764,1.87836003 C14.2526301,1.82554165 14.4642493,1.85433404 14.6416667,1.95833333 L14.6625,1.96875 C15.0162296,2.1884972 15.1330707,2.64850135 14.9270833,3.01041667 C14.7880792,3.2494738 14.5327812,3.39694404 14.25625,3.39791667 C14.1199617,3.39737929 13.9862524,3.36071706 13.86875,3.29166667 C13.5023323,3.07770968 13.3752822,2.60938632 13.5833333,2.23958333 Z M6.45833333,16.1645833 C5.78798595,15.7795327 4.93245549,16.0097244 4.54583333,16.6791667 C4.36041473,17.0015606 4.31068221,17.3844142 4.4075794,17.7434808 C4.50447659,18.1025474 4.74006373,18.4084051 5.0625,18.59375 C5.38425969,18.7789744 5.76648484,18.8285961 6.12487411,18.7316708 C6.48326338,18.6347454 6.78837548,18.3992354 6.97291667,18.0770833 C7.15841039,17.7552592 7.20840429,17.3729102 7.11189194,17.0142125 C7.01537959,16.6555148 6.78027344,16.3498757 6.45833333,16.1645833 Z M6.43125,17.7645833 C6.2920864,18.0047716 6.03592244,18.153077 5.75833333,18.1541667 C5.43853942,18.1448838 5.15731656,17.9400484 5.0503882,17.6385179 C4.94345983,17.3369874 5.03280515,17.0007416 5.27530442,16.792059 C5.51780369,16.5833764 5.86361104,16.5451519 6.14583333,16.6958333 C6.51595985,16.909991 6.64350936,17.3829483 6.43125,17.7541667 L6.43125,17.7645833 Z M2.99375,12.9166667 C2.44597895,12.7727002 1.86542805,12.9729575 1.5229097,13.4240236 C1.18039134,13.8750897 1.14339031,14.4880932 1.42916667,14.9770833 C1.6730518,15.4245302 2.14080391,15.7041178 2.65039206,15.7070416 C3.1599802,15.7099654 3.63090973,15.4357636 3.87991319,14.9911447 C4.12891664,14.5465259 4.11666137,14.0017222 3.84791667,13.56875 C3.66198452,13.2457931 3.35429457,13.0108981 2.99375,12.9166667 Z M3.02916667,14.9416667 C2.91081129,15.0102515 2.7763742,15.0461972 2.63958333,15.0458333 C2.2882705,15.0474649 1.97980368,14.8125755 1.88794512,14.4734805 C1.79608655,14.1343856 1.94381623,13.7759156 2.24791667,13.6 C2.36530091,13.53067 2.49908747,13.4939866 2.63541667,13.49375 C2.98623335,13.4940023 3.2933766,13.7292762 3.38498149,14.067922 C3.47658639,14.4065677 3.32993329,14.7645952 3.02708333,14.9416667 L3.02916667,14.9416667 Z M16.6666667,15.4583333 C17.3244724,15.8391584 18.1659751,15.6255461 18.5625,14.9770833 L18.5833333,14.9458333 C18.9234636,14.2817779 18.6839765,13.467666 18.0384507,13.0935607 C17.3929249,12.7194555 16.5674903,12.9164073 16.1604167,13.5416667 C15.7711283,14.210762 15.9977472,15.0687429 16.6666667,15.4583333 Z M16.6958333,13.8583333 C16.7984448,13.6802225 16.9679447,13.5504727 17.1666667,13.4979167 C17.23457,13.4795252 17.3046513,13.4704146 17.375,13.4708333 C17.510404,13.4710069 17.6433601,13.5069409 17.7604167,13.575 C18.1260719,13.7836347 18.2590906,14.2455052 18.0604167,14.6166667 L18.04375,14.6416667 C17.905155,14.8808618 17.6493625,15.0278233 17.3729167,15.0270833 C17.2367533,15.0276814 17.1029273,14.9917066 16.9854167,14.9229167 C16.8068521,14.8196819 16.6766552,14.6496919 16.62351,14.4503973 C16.5703648,14.2511028 16.5986318,14.0388557 16.7020833,13.8604167 L16.6958333,13.8583333 Z M18.5,8.59166667 C17.7292708,8.5974152 17.1081519,9.2250509 17.1104479,9.99579815 C17.1127439,10.7665454 17.737591,11.3904695 18.5083408,11.3916262 C19.2790905,11.3927828 19.9058074,10.7707369 19.9104167,10 C19.912084,9.62689199 19.7647479,9.26855371 19.5011137,9.00452838 C19.2374795,8.74050304 18.8793601,8.59263582 18.50625,8.59375 L18.5,8.59166667 Z M18.5,10.7666667 C18.0723044,10.7608932 17.7301527,10.4097101 17.7355218,9.98200921 C17.7408908,9.55430834 18.0917504,9.21182477 18.5194561,9.21678947 C18.9471619,9.22175418 19.289977,9.57228974 19.2854167,10 C19.280849,10.4259134 18.9342712,10.7687745 18.5083333,10.76875 L18.5,10.7666667 Z M18.06875,6.95416667 C18.5589698,6.67064009 18.8300992,6.11970617 18.7556887,5.55830984 C18.6812781,4.99691351 18.2759848,4.53563634 17.7288296,4.38960909 C17.1816744,4.24358183 16.6004338,4.44156834 16.2561871,4.89123154 C15.9119404,5.34089474 15.872496,5.95366179 16.15625,6.44375 C16.3414483,6.7658325 16.6474099,7.00079208 17.006377,7.09659484 C17.365344,7.1923976 17.7476933,7.14113755 18.06875,6.95416667 Z M16.6979167,6.13125 C16.4835416,5.76065383 16.6093061,5.28647506 16.9791667,5.07083333 C17.2611447,4.90974717 17.6136508,4.94154684 17.8622478,5.15049631 C18.1108449,5.35944579 18.2028063,5.70122769 18.0926252,6.00671171 C17.9824441,6.31219573 17.6934894,6.51658988 17.36875,6.51875 C17.0923328,6.51735562 16.8372292,6.36999764 16.6979167,6.13125 Z M14.2666667,18.7645833 C14.8546803,18.7627816 15.3789029,18.3937319 15.5789059,17.8407743 C15.778909,17.2878167 15.6120634,16.6688098 15.1612564,16.2912699 C14.7104494,15.91373 14.071767,15.8581268 13.5625,16.1520833 C13.0126552,16.4694536 12.7451975,17.1170868 12.9108764,17.729952 C13.0765553,18.3428171 13.6338919,18.7674796 14.26875,18.7645833 L14.2666667,18.7645833 Z M13.875,16.69375 C14.1567575,16.5328063 14.5089497,16.5644293 14.7575296,16.7729916 C15.0061094,16.9815539 15.0984434,17.322895 14.9889018,17.6283304 C14.8793601,17.9337659 14.5911369,18.1386236 14.2666667,18.1416667 C13.9138959,18.1449751 13.6034051,17.9096149 13.511286,17.5690679 C13.4191668,17.228521 13.5686673,16.8687314 13.875,16.69375 Z M12.6541667,13.44375 C13.188907,12.7992975 13.4081494,11.9498285 13.2520833,11.1270833 C13.079661,10.2554047 12.5273997,9.50607091 11.7458333,9.08333333 C11.3487905,8.87216209 10.9397617,8.68434277 10.5208333,8.52083333 L10.3625,8.45416667 C10.1389269,8.37069254 9.92845786,8.25563612 9.7375,8.1125 C9.67628917,8.07524596 9.63851952,8.00914907 9.6375,7.9375 C9.6375,7.88125 9.70208333,7.825 9.79166667,7.78541667 C9.88286102,7.75089494 9.97957358,7.73324666 10.0770833,7.73333333 C10.579866,7.70161286 11.0822926,7.80066268 11.5354167,8.02083333 C11.7459231,8.14361806 12.0001045,8.16651729 12.2291667,8.08333333 C12.4404958,7.9764115 12.5932229,7.78092085 12.6458333,7.55 C12.7145833,7.34166667 12.7770833,7.11875 12.8395833,6.90208333 L12.9104167,6.65208333 C13.046201,6.25259776 12.8393285,5.81761133 12.44375,5.67083333 C12.0629221,5.50227143 11.6615552,5.38459315 11.25,5.32083333 L11.16875,5.30833333 C11.16875,5.28333333 11.16875,5.25416667 11.16875,5.22916667 C11.16875,4.36041667 11.0083333,4.07083333 10.0875,4.07083333 L9.69166667,4.07083333 C9.11458333,4.0875 8.85833333,4.34375 8.84583333,4.92291667 C8.84583333,5.01666667 8.84583333,5.1125 8.84583333,5.21666667 L8.84583333,5.36875 C8.84583333,5.39791667 8.84583333,5.43125 8.84583333,5.45833333 L8.74583333,5.49583333 C7.52291667,5.94166667 6.8375,6.81875 6.7625,8.03333333 C6.69791667,9.075 7.17916667,9.92916667 8.22083333,10.5458333 C8.57998601,10.7495865 8.95477948,10.9244437 9.34166667,11.06875 C9.49791667,11.13125 9.65416667,11.19375 9.80833333,11.2625 C9.96880646,11.3284925 10.1195067,11.4161089 10.25625,11.5229167 C10.3524195,11.5909106 10.4073735,11.7031738 10.4020833,11.8208333 C10.3775058,11.9312015 10.2992924,12.0219291 10.19375,12.0625 C9.96138343,12.1588696 9.70744562,12.1912412 9.45833333,12.15625 C8.99319526,12.1028294 8.5415139,11.9659135 8.125,11.7520833 C7.98665024,11.6694634 7.82977124,11.6229011 7.66875,11.6166667 C7.18958333,11.6166667 7.04375,12.075 6.99791667,12.225 C6.91666667,12.4833333 6.84583333,12.7395833 6.76875,13.025 C6.61041667,13.6020833 6.75416667,13.9145833 7.29375,14.1770833 C7.75715114,14.3857719 8.24837895,14.5261227 8.75208333,14.59375 L8.75208333,15.1 C8.74224726,15.3158229 8.82222356,15.5260836 8.97300547,15.6808127 C9.12378738,15.8355418 9.33191169,15.9209236 9.54791667,15.9166667 L9.91041667,15.9166667 L10.3270833,15.9166667 C10.5392377,15.9215943 10.7438484,15.8378863 10.8917144,15.6856713 C11.0395803,15.5334564 11.1173237,15.3265058 11.10625,15.1145833 C11.10625,15.0375 11.10625,14.9604167 11.10625,14.8833333 C11.10625,14.7375 11.10625,14.5854167 11.10625,14.4354167 C11.7126584,14.2735701 12.2536537,13.9269836 12.6541667,13.44375 Z M10.91875,13.8479167 C10.6440577,13.8918122 10.4528849,14.1445647 10.4854167,14.4208333 C10.4854167,14.5708333 10.4854167,14.7208333 10.4854167,14.8791667 C10.4854167,14.9583333 10.4854167,15.0395833 10.4854167,15.11875 C10.4854167,15.2666667 10.425,15.2958333 10.3166667,15.2979167 C10.0645833,15.2979167 9.81458333,15.2979167 9.56458333,15.2979167 C9.45,15.2979167 9.38333333,15.2625 9.38125,15.0895833 L9.375,14.5833333 C9.38947667,14.4477045 9.36866522,14.3106361 9.31458333,14.1854167 C9.29360948,14.1481391 9.26525399,14.1155303 9.23125,14.0895833 C9.1213134,14.0241564 8.99661122,13.9876057 8.86875,13.9833333 C8.41606163,13.9225842 7.97462757,13.7962597 7.55833333,13.6083333 C7.2875,13.4770833 7.28541667,13.46875 7.3625,13.1916667 C7.43958333,12.9145833 7.50833333,12.6625 7.58541667,12.4145833 C7.60058235,12.3538095 7.62594167,12.2960466 7.66041667,12.24375 C7.71976229,12.2538063 7.77645706,12.2757755 7.82708333,12.3083333 C8.31093075,12.5546151 8.83535239,12.7113063 9.375,12.7708333 C9.73527645,12.82015 10.1021863,12.7719481 10.4375,12.63125 C10.7503416,12.510752 10.9721843,12.2287496 11.0156375,11.896332 C11.0590908,11.5639144 10.9171898,11.2343638 10.6458333,11.0375 C10.4650251,10.89398 10.26521,10.7761942 10.0520833,10.6875 C9.89166667,10.6166667 9.72916667,10.5520833 9.56666667,10.4791667 C9.21307531,10.3463042 8.87037183,10.1860973 8.54166667,10 C7.70833333,9.49791667 7.33541667,8.88125 7.38541667,8.0625 C7.44375,7.0875 7.95833333,6.4375 8.95833333,6.075 C9.3875,5.91875 9.46875,5.80625 9.47083333,5.3625 L9.47083333,5.20833333 C9.47083333,5.11875 9.47083333,5.03125 9.47083333,4.94166667 C9.46634249,4.87096345 9.47626547,4.800085 9.5,4.73333333 C9.56573187,4.70555509 9.63721577,4.69411767 9.70833333,4.7 L10.0895833,4.7 C10.2297199,4.68486833 10.3714696,4.69833456 10.50625,4.73958333 C10.5441605,4.90196812 10.55889,5.06890242 10.55,5.23541667 C10.55,5.73333333 10.6666667,5.86041667 11.1604167,5.94375 C11.513907,6.00100125 11.8584587,6.10394659 12.1854167,6.25 C12.325,6.31041667 12.3354167,6.37708333 12.3041667,6.48541667 L12.23125,6.7375 C12.1708333,6.94583333 12.1125,7.15416667 12.0395833,7.37916667 C12.0270183,7.42729314 12.0081021,7.47353265 11.9833333,7.51666667 C11.9212557,7.51615511 11.8605882,7.4980993 11.8083333,7.46458333 C11.2617499,7.19976184 10.6562475,7.07995271 10.05,7.11666667 C9.87760424,7.11974667 9.70730917,7.1550776 9.54791667,7.22083333 C9.27219514,7.32691261 9.07324526,7.57104234 9.025,7.8625 C8.99424912,8.15137594 9.11967108,8.43476606 9.35416667,8.60625 C9.58787756,8.78578222 9.84604198,8.93099971 10.1208333,9.0375 L10.2791667,9.10416667 C10.67583,9.25887363 11.0632744,9.43624941 11.4395833,9.63541667 C12.0597807,9.96793062 12.4990841,10.5600353 12.6375,11.25 C12.758346,11.8902258 12.5872365,12.5509834 12.1708333,13.0520833 C11.8476326,13.4429559 11.4095549,13.7221302 10.91875,13.85 L10.91875,13.8479167 Z" id="Shape"></path>
            </g>
        </g>
    </g>
</svg>