<?xml version="1.0" encoding="UTF-8"?>
<svg width="29px" height="30px" viewBox="0 0 29 30" version="1.1" xmlns="http://www.w3.org/2000/svg" xmlns:xlink="http://www.w3.org/1999/xlink">
    <!-- Generator: Sketch 50.2 (55047) - http://www.bohemiancoding.com/sketch -->
    <title>noun_739108_cc</title>
    <desc>Created with Sketch.</desc>
    <defs></defs>
    <g id="Finale-V1.0" stroke="none" stroke-width="1" fill="none" fill-rule="evenodd">
        <g id="Mi-perfil---educacion" transform="translate(-388.000000, -368.000000)" fill="#000000" fill-rule="nonzero">
            <g id="noun_739108_cc" transform="translate(388.000000, 368.000000)">
                <g id="Group" transform="translate(0.000000, 0.245315)">
                    <path d="M14.5,0.1393 C6.49187513,0.1393 0,6.68288846 0,14.7546923 C0,22.8265 6.49187513,29.3700769 14.5,29.3700769 C22.5081249,29.3700769 29,22.8265 29,14.7546923 C29,6.68288846 22.5081249,0.1393 14.5,0.1393 Z M10.3026316,7.83160769 L21.75,14.7546923 L10.3026316,21.6777692 L10.3026316,7.83160769 Z" id="Shape"></path>
                </g>
            </g>
        </g>
    </g>
</svg>