<?xml version="1.0" encoding="UTF-8"?>
<svg width="103px" height="100px" viewBox="0 0 103 100" version="1.1" xmlns="http://www.w3.org/2000/svg" xmlns:xlink="http://www.w3.org/1999/xlink">
    <!-- Generator: Sketch 50.2 (55047) - http://www.bohemiancoding.com/sketch -->
    <title>noun_1184592_cc</title>
    <desc>Created with Sketch.</desc>
    <defs></defs>
    <g id="Finale-V1.0" stroke="none" stroke-width="1" fill="none" fill-rule="evenodd">
        <g id="noun_1184592_cc" fill="#0F75FF" fill-rule="nonzero">
            <g id="Group">
                <path d="M49.8015873,78.2539683 L49.3253968,77.6587302 C49.2063492,77.7777778 46.3095238,80.0793651 45.7539683,86.468254 L46.5079365,86.547619 C47.0238095,80.515873 49.7619048,78.2936508 49.8015873,78.2539683 Z" id="Shape"></path>
                <path d="M50,79.2460317 C49.8809524,79.3650794 47.7777778,82.2619048 47.4603175,86.3888889 L48.2142857,86.4285714 C48.531746,82.5396825 50.5952381,79.7222222 50.5952381,79.6825397 L50,79.2460317 Z" id="Shape"></path>
                <path d="M49.4047619,85.8730159 L50.1587302,85.8730159 C50.1587302,83.5714286 51.3095238,82.1825397 51.3492063,82.1428571 L50.7936508,81.6666667 C50.7142857,81.7460317 49.4047619,83.2936508 49.4047619,85.8730159 Z" id="Shape"></path>
                <path d="M88.3333333,66.7460317 C84.3650794,68.0555556 79.484127,69.6825397 67.8571429,68.1746032 C60.8333333,67.2619048 58.1746032,67.0634921 55.7539683,67.0634921 C55.9920635,63.7301587 56.3095238,58.452381 56.468254,51.9047619 C56.468254,51.4285714 56.468254,50.952381 56.5079365,50.4365079 C57.3809524,50.515873 58.2142857,50.5555556 59.0079365,50.5555556 C63.531746,50.5555556 67.4206349,49.2460317 70.5952381,46.6269841 C78.2539683,40.3174603 78.9285714,28.7301587 78.968254,28.2539683 L79.0079365,27.3015873 L78.0555556,27.4603175 C65.4761905,29.7619048 59.7619048,35.5952381 57.1428571,40.0793651 C56.9047619,40.4761905 56.7063492,40.8333333 56.547619,41.1904762 C56.468254,32.0634921 55.8333333,28.6507937 55,24.047619 C54.6031746,21.984127 54.2063492,19.6825397 53.7698413,16.547619 C52.3809524,6.50793651 55.7142857,1.86507937 55.7539683,1.82539683 L53.3730159,-5.32907052e-15 C53.1746032,0.238095238 49.2063492,5.55555556 50.7936508,16.984127 C51.2301587,20.1984127 51.6666667,22.5396825 52.0238095,24.6031746 C52.4206349,26.7460317 52.7380952,28.5714286 52.9761905,30.7539683 C47.9761905,23.5714286 38.6904762,20.8730159 38.2539683,20.7539683 L37.3412698,20.4761905 L37.3015873,21.4285714 C37.1825397,24.047619 37.2619048,26.3888889 37.5,28.531746 C24.0873016,23.8095238 8.80952381,29.7222222 8.0952381,30.0396825 L7.22222222,30.3968254 L7.73809524,31.1904762 C19.4444444,48.6111111 32.4603175,52.5396825 41.7857143,52.5396825 C47.2222222,52.5396825 51.468254,51.1904762 53.4126984,50.4365079 C53.2539683,57.7380952 52.8968254,63.6111111 52.6587302,67.1031746 C51.9047619,67.1031746 51.031746,67.1031746 50,67.1031746 C46.7063492,67.1031746 44.7222222,67.4603175 42.1825397,67.9365079 C39.4047619,68.452381 35.9920635,69.0873016 29.2460317,69.6031746 C16.6269841,70.5952381 6.23015873,67.6587302 6.11111111,67.6587302 L5.87301587,67.6190476 C2.8968254,67.2619048 1.23015873,67.6190476 0.357142857,68.0555556 L0.357142857,71.4285714 C2.02380952,70.952381 4.04761905,70.4365079 5.3968254,70.5952381 C6.46825397,70.8730159 13.9285714,72.8571429 23.8492063,72.8571429 C25.6349206,72.8571429 27.5,72.7777778 29.4444444,72.6587302 C36.3095238,72.1428571 39.8412698,71.468254 42.6984127,70.952381 C45.1587302,70.4761905 46.9444444,70.1587302 49.9603175,70.1587302 C50.8730159,70.1587302 51.7063492,70.1587302 52.4206349,70.1190476 C52.4206349,70.2380952 52.4206349,70.3571429 52.3809524,70.3968254 C50.1190476,71.3492063 41.2301587,75.6746032 41.2301587,85 C41.2301587,93.2142857 46.6666667,99.8809524 53.4126984,99.8809524 C60.1587302,99.8809524 65.5952381,93.2142857 65.6349206,85 C65.6349206,76.3492063 58.531746,72.2222222 55.3571429,70.7936508 L55.3968254,70.7936508 C55.3968254,70.7936508 55.4365079,70.515873 55.4761905,70.0793651 C57.8571429,70.0793651 60.3571429,70.2380952 67.3809524,71.1507937 C78.7301587,72.6190476 83.968254,71.3095238 89.1666667,69.5634921 C92.1825397,68.5714286 99.2460317,69.8809524 102.261905,70.7142857 L102.261905,68.0555556 C100.238095,67.4206349 92.6984127,65.2777778 88.3333333,66.7460317 Z M58.452381,40.952381 C61.8253968,35.0793651 68.3333333,31.0714286 77.3412698,29.2460317 C77.0238095,32.1031746 75.5555556,40.6746032 69.6031746,45.5555556 C66.031746,48.452381 61.468254,49.5634921 55.9920635,48.8888889 C56.0714286,47.5793651 56.4285714,44.3650794 58.452381,40.952381 Z M9.56349206,31.2301587 C13.3333333,29.9206349 28.2539683,25.4365079 40,31.3492063 C46.1507937,34.4047619 50.515873,39.8412698 53.015873,47.5 C37.7777778,32.0238095 15.8730159,32.3412698 10.5555556,32.6587302 C10.2380952,32.1825397 9.88095238,31.7063492 9.56349206,31.2301587 Z M14.8015873,37.8571429 C19.7222222,37.8571429 35.515873,38.7698413 49.4047619,50.1984127 C42.3809524,51.9444444 28.3333333,52.7380952 14.8015873,37.8571429 Z M50.0396825,50.0396825 C35.4761905,37.8968254 18.7698413,37.3015873 14.3650794,37.3412698 C13.7698413,36.6666667 13.2142857,35.9920635 12.6190476,35.2777778 C16.5079365,35.1984127 36.8253968,35.5555556 51.468254,49.6031746 C51.031746,49.7619048 50.5555556,49.9206349 50.0396825,50.0396825 Z M52.0238095,49.4444444 C36.6666667,34.4444444 14.8015873,34.6825397 12.1825397,34.7619048 C11.7857143,34.2460317 11.3492063,33.6904762 10.952381,33.1349206 C16.7857143,32.8174603 38.4920635,32.8174603 53.3730159,48.531746 C53.4126984,48.6507937 53.452381,48.7698413 53.4920635,48.8492063 C53.1349206,49.047619 52.6190476,49.2063492 52.0238095,49.4444444 Z M40.6746032,29.9206349 C40.1587302,29.6428571 39.6428571,29.4047619 39.0873016,29.2063492 C38.8095238,27.1031746 38.6507937,24.8809524 38.7301587,22.5 C41.468254,23.4920635 49.5238095,26.8253968 52.8968254,33.6904762 C54.6428571,37.1428571 54.9206349,41.031746 53.8492063,45.3174603 C51.1507937,38.1349206 46.7460317,32.9365079 40.6746032,29.9206349 Z M62.5793651,85 C62.5793651,91.547619 58.452381,96.8650794 53.4126984,96.8650794 C48.3730159,96.8650794 44.2460317,91.547619 44.2460317,85 C44.2460317,77.7777778 51.547619,74.0873016 53.4920635,73.2539683 C55.4761905,74.0079365 62.6190476,77.2222222 62.5793651,85 Z" id="Shape"></path>
            </g>
        </g>
    </g>
</svg>