<?xml version="1.0" encoding="UTF-8"?>
<svg width="18px" height="25px" viewBox="0 0 18 25" version="1.1" xmlns="http://www.w3.org/2000/svg" xmlns:xlink="http://www.w3.org/1999/xlink">
    <!-- Generator: Sketch 50.2 (55047) - http://www.bohemiancoding.com/sketch -->
    <title>noun_1764391_cc</title>
    <desc>Created with Sketch.</desc>
    <defs></defs>
    <g id="Finale-V1.0" stroke="none" stroke-width="1" fill="none" fill-rule="evenodd">
        <g id="noun_1764391_cc" fill="#0F75FF" fill-rule="nonzero">
            <path d="M8.53658537,9.75609756 C5.85057116,9.75609756 3.65853659,7.56406298 3.65853659,4.87804878 C3.65853659,2.19203458 5.85057116,0 8.53658537,0 C11.2225996,0 13.4146341,2.19203458 13.4146341,4.87804878 C13.4146341,7.56406298 11.2225996,9.75609756 8.53658537,9.75609756 Z M8.53658537,1.23494906 C6.52979315,1.23494906 4.89348564,2.87125656 4.89348564,4.87804878 C4.89348564,6.884841 6.52979315,8.5211485 8.53658537,8.5211485 C10.5433776,8.5211485 12.1796851,6.884841 12.1796851,4.87804878 C12.1796851,2.87125656 10.5433776,1.23494906 8.53658537,1.23494906 Z" id="Shape"></path>
            <path d="M16.4612365,25 C16.1246727,25 15.8493024,24.7256098 15.8493024,24.3902439 L15.8493024,18.9634146 C15.8493024,15.5487805 13.0955985,12.804878 9.69936381,12.804878 L7.43520732,12.804878 C4.00837589,12.804878 1.22407535,15.5792683 1.22407535,18.9939024 L1.22407535,24.3902439 C1.22407535,24.7256098 0.948704965,25 0.612141163,25 C0.275577362,25 0.000206978464,24.7256098 0.000206978464,24.3902439 L0.000206978464,18.9939024 C-0.0303897308,14.9085366 3.33524829,11.5853659 7.43520732,11.5853659 L9.69936381,11.5853659 C13.7687261,11.5853659 17.0731707,14.8780488 17.0731707,18.9634146 L17.0731707,24.3902439 C17.0731707,24.7256098 16.7978003,25 16.4612365,25 Z" id="Shape"></path>
        </g>
    </g>
</svg>