<?xml version="1.0" encoding="UTF-8"?>
<svg width="13px" height="20px" viewBox="0 0 13 20" version="1.1" xmlns="http://www.w3.org/2000/svg" xmlns:xlink="http://www.w3.org/1999/xlink">
    <!-- Generator: Sketch 49.3 (51167) - http://www.bohemiancoding.com/sketch -->
    <title>noun_430218_cc copy</title>
    <desc>Created with Sketch.</desc>
    <defs></defs>
    <g id="Finale-V1.0" stroke="none" stroke-width="1" fill="none" fill-rule="evenodd">
        <g id="Educación---Video-individual" transform="translate(-810.000000, -768.000000)" fill="#0F75FF" fill-rule="nonzero">
            <g id="noun_430218_cc-copy" transform="translate(810.000000, 768.000000)">
                <path d="M12.4330781,3.355 L9.91392188,3.355 L9.91392188,0.621875 C9.91392188,0.436875 9.82596875,0.263541667 9.67829688,0.157708333 C9.530625,0.051875 9.34151563,0.0264583333 9.1723125,0.09 L0.377,3.38979167 C0.373140625,3.39125 0.369890625,3.39375 0.366234375,3.39520833 C0.346328125,3.403125 0.328046875,3.41333333 0.30915625,3.42354167 C0.295140625,3.43125 0.28071875,3.43791667 0.26771875,3.44666667 C0.252078125,3.45708333 0.2380625,3.46916667 0.223640625,3.48125 C0.21003125,3.4925 0.1958125,3.50291667 0.18321875,3.51541667 C0.170625,3.528125 0.159859375,3.54208333 0.148484375,3.55604167 C0.137109375,3.56979167 0.124921875,3.58291667 0.114765625,3.59770833 C0.10440625,3.613125 0.096078125,3.62979167 0.087140625,3.64625 C0.0788125,3.66125 0.069875,3.67604167 0.06296875,3.69166667 C0.05565625,3.70854167 0.050578125,3.72645833 0.044890625,3.74416667 C0.03940625,3.76145833 0.033109375,3.77875 0.029046875,3.79645833 C0.025390625,3.81270833 0.024171875,3.829375 0.0219375,3.84604167 C0.01909375,3.866875 0.01625,3.88770833 0.01584375,3.90895833 C0.01584375,3.91333333 0.014625,3.91729167 0.014625,3.921875 L0.014625,19.225625 C0.014625,19.5385417 0.261828125,19.7920833 0.56671875,19.7920833 L9.6045625,19.7920833 C9.745125,19.7920833 9.88040625,19.7366667 9.98278125,19.638125 L12.8115,16.9102083 C12.9224063,16.803125 12.9851719,16.65375 12.9851719,16.4975 L12.9851719,3.92145833 C12.985375,3.60875 12.7381719,3.355 12.4330781,3.355 Z M8.80953125,3.355 L3.68407813,3.355 L8.80953125,1.43229167 L8.80953125,3.355 Z M1.11901563,4.48791667 L11.8809844,4.48791667 L11.8809844,15.6760417 L9.19648438,15.6760417 C8.89139063,15.6760417 8.6441875,15.9295833 8.6441875,16.2425 L8.6441875,18.6591667 L1.11901563,18.6591667 L1.11901563,4.48791667 Z M9.74878125,18.3085417 L9.74878125,16.8085417 L11.3039063,16.8085417 L9.74878125,18.3085417 Z" id="Shape"></path>
            </g>
        </g>
    </g>
</svg>